\beamer@endinputifotherversion {3.36pt}
\beamer@sectionintoc {1}{Introduction}{3}{0}{1}
\beamer@subsectionintoc {1}{1}{The Aeroelastic System}{3}{0}{1}
\beamer@subsectionintoc {1}{2}{Motivation}{4}{0}{1}
\beamer@sectionintoc {2}{Nonlinear Equations of Motion}{6}{0}{2}
\beamer@subsectionintoc {2}{1}{Structural Equations}{7}{0}{2}
\beamer@subsectionintoc {2}{2}{Aeroelastic Simulation}{8}{0}{2}
\beamer@sectionintoc {3}{Global Sensitivity Analysis}{9}{0}{3}
\beamer@subsectionintoc {3}{1}{Polynomial Chaos Surrogate}{13}{0}{3}
\beamer@subsectionintoc {3}{2}{Results}{14}{0}{3}
\beamer@sectionintoc {4}{Summary}{19}{0}{4}
