%!PS-Adobe-3.0 EPSF-3.0
%%Creator: (MATLAB, The Mathworks, Inc. Version 9.0.0.341360 \(R2016a\). Operating System: Linux)
%%Title: /home/brandon_robinson/Documents/Carleton/Research/GSA/LU_10.eps
%%CreationDate: 2018-05-17T21:55:37
%%Pages: (atend)
%%BoundingBox:    31    20   383   296
%%LanguageLevel: 3
%%EndComments
%%BeginProlog
%%BeginResource: procset (Apache XML Graphics Std ProcSet) 1.2 0
%%Version: 1.2 0
%%Copyright: (Copyright 2001-2003,2010 The Apache Software Foundation. License terms: http://www.apache.org/licenses/LICENSE-2.0)
/bd{bind def}bind def
/ld{load def}bd
/GR/grestore ld
/M/moveto ld
/LJ/setlinejoin ld
/C/curveto ld
/f/fill ld
/LW/setlinewidth ld
/GC/setgray ld
/t/show ld
/N/newpath ld
/CT/concat ld
/cp/closepath ld
/S/stroke ld
/L/lineto ld
/CC/setcmykcolor ld
/A/ashow ld
/GS/gsave ld
/RC/setrgbcolor ld
/RM/rmoveto ld
/ML/setmiterlimit ld
/re {4 2 roll M
1 index 0 rlineto
0 exch rlineto
neg 0 rlineto
cp } bd
/_ctm matrix def
/_tm matrix def
/BT { _ctm currentmatrix pop matrix _tm copy pop 0 0 moveto } bd
/ET { _ctm setmatrix } bd
/iTm { _ctm setmatrix _tm concat } bd
/Tm { _tm astore pop iTm 0 0 moveto } bd
/ux 0.0 def
/uy 0.0 def
/F {
  /Tp exch def
  /Tf exch def
  Tf findfont Tp scalefont setfont
  /cf Tf def  /cs Tp def
} bd
/ULS {currentpoint /uy exch def /ux exch def} bd
/ULE {
  /Tcx currentpoint pop def
  gsave
  newpath
  cf findfont cs scalefont dup
  /FontMatrix get 0 get /Ts exch def /FontInfo get dup
  /UnderlinePosition get Ts mul /To exch def
  /UnderlineThickness get Ts mul /Tt exch def
  ux uy To add moveto  Tcx uy To add lineto
  Tt setlinewidth stroke
  grestore
} bd
/OLE {
  /Tcx currentpoint pop def
  gsave
  newpath
  cf findfont cs scalefont dup
  /FontMatrix get 0 get /Ts exch def /FontInfo get dup
  /UnderlinePosition get Ts mul /To exch def
  /UnderlineThickness get Ts mul /Tt exch def
  ux uy To add cs add moveto Tcx uy To add cs add lineto
  Tt setlinewidth stroke
  grestore
} bd
/SOE {
  /Tcx currentpoint pop def
  gsave
  newpath
  cf findfont cs scalefont dup
  /FontMatrix get 0 get /Ts exch def /FontInfo get dup
  /UnderlinePosition get Ts mul /To exch def
  /UnderlineThickness get Ts mul /Tt exch def
  ux uy To add cs 10 mul 26 idiv add moveto Tcx uy To add cs 10 mul 26 idiv add lineto
  Tt setlinewidth stroke
  grestore
} bd
/QT {
/Y22 exch store
/X22 exch store
/Y21 exch store
/X21 exch store
currentpoint
/Y21 load 2 mul add 3 div exch
/X21 load 2 mul add 3 div exch
/X21 load 2 mul /X22 load add 3 div
/Y21 load 2 mul /Y22 load add 3 div
/X22 load /Y22 load curveto
} bd
/SSPD {
dup length /d exch dict def
{
/v exch def
/k exch def
currentpagedevice k known {
/cpdv currentpagedevice k get def
v cpdv ne {
/upd false def
/nullv v type /nulltype eq def
/nullcpdv cpdv type /nulltype eq def
nullv nullcpdv or
{
/upd true def
} {
/sametype v type cpdv type eq def
sametype {
v type /arraytype eq {
/vlen v length def
/cpdvlen cpdv length def
vlen cpdvlen eq {
0 1 vlen 1 sub {
/i exch def
/obj v i get def
/cpdobj cpdv i get def
obj cpdobj ne {
/upd true def
exit
} if
} for
} {
/upd true def
} ifelse
} {
v type /dicttype eq {
v {
/dv exch def
/dk exch def
/cpddv cpdv dk get def
dv cpddv ne {
/upd true def
exit
} if
} forall
} {
/upd true def
} ifelse
} ifelse
} if
} ifelse
upd true eq {
d k v put
} if
} if
} if
} forall
d length 0 gt {
d setpagedevice
} if
} bd
%%EndResource
%%BeginResource: procset (Apache XML Graphics EPS ProcSet) 1.0 0
%%Version: 1.0 0
%%Copyright: (Copyright 2002-2003 The Apache Software Foundation. License terms: http://www.apache.org/licenses/LICENSE-2.0)
/BeginEPSF { %def
/b4_Inc_state save def         % Save state for cleanup
/dict_count countdictstack def % Count objects on dict stack
/op_count count 1 sub def      % Count objects on operand stack
userdict begin                 % Push userdict on dict stack
/showpage { } def              % Redefine showpage, { } = null proc
0 setgray 0 setlinecap         % Prepare graphics state
1 setlinewidth 0 setlinejoin
10 setmiterlimit [ ] 0 setdash newpath
/languagelevel where           % If level not equal to 1 then
{pop languagelevel             % set strokeadjust and
1 ne                           % overprint to their defaults.
{false setstrokeadjust false setoverprint
} if
} if
} bd
/EndEPSF { %def
count op_count sub {pop} repeat            % Clean up stacks
countdictstack dict_count sub {end} repeat
b4_Inc_state restore
} bd
%%EndResource
%FOPBeginFontDict
%%IncludeResource: font Courier-Bold
%%IncludeResource: font Helvetica
%%IncludeResource: font Courier-BoldOblique
%%IncludeResource: font Courier-Oblique
%%IncludeResource: font Times-Roman
%%IncludeResource: font Helvetica-BoldOblique
%%IncludeResource: font Helvetica-Bold
%%IncludeResource: font Helvetica-Oblique
%%IncludeResource: font Times-BoldItalic
%%IncludeResource: font Courier
%%IncludeResource: font Times-Italic
%%IncludeResource: font Times-Bold
%%IncludeResource: font Symbol
%%IncludeResource: font ZapfDingbats
%FOPEndFontDict
%%BeginResource: encoding WinAnsiEncoding
/WinAnsiEncoding [
/.notdef /.notdef /.notdef /.notdef /.notdef
/.notdef /.notdef /.notdef /.notdef /.notdef
/.notdef /.notdef /.notdef /.notdef /.notdef
/.notdef /.notdef /.notdef /.notdef /.notdef
/.notdef /.notdef /.notdef /.notdef /.notdef
/.notdef /.notdef /.notdef /.notdef /.notdef
/.notdef /.notdef /space /exclam /quotedbl
/numbersign /dollar /percent /ampersand /quotesingle
/parenleft /parenright /asterisk /plus /comma
/hyphen /period /slash /zero /one
/two /three /four /five /six
/seven /eight /nine /colon /semicolon
/less /equal /greater /question /at
/A /B /C /D /E
/F /G /H /I /J
/K /L /M /N /O
/P /Q /R /S /T
/U /V /W /X /Y
/Z /bracketleft /backslash /bracketright /asciicircum
/underscore /quoteleft /a /b /c
/d /e /f /g /h
/i /j /k /l /m
/n /o /p /q /r
/s /t /u /v /w
/x /y /z /braceleft /bar
/braceright /asciitilde /bullet /Euro /bullet
/quotesinglbase /florin /quotedblbase /ellipsis /dagger
/daggerdbl /circumflex /perthousand /Scaron /guilsinglleft
/OE /bullet /Zcaron /bullet /bullet
/quoteleft /quoteright /quotedblleft /quotedblright /bullet
/endash /emdash /asciitilde /trademark /scaron
/guilsinglright /oe /bullet /zcaron /Ydieresis
/space /exclamdown /cent /sterling /currency
/yen /brokenbar /section /dieresis /copyright
/ordfeminine /guillemotleft /logicalnot /sfthyphen /registered
/macron /degree /plusminus /twosuperior /threesuperior
/acute /mu /paragraph /middot /cedilla
/onesuperior /ordmasculine /guillemotright /onequarter /onehalf
/threequarters /questiondown /Agrave /Aacute /Acircumflex
/Atilde /Adieresis /Aring /AE /Ccedilla
/Egrave /Eacute /Ecircumflex /Edieresis /Igrave
/Iacute /Icircumflex /Idieresis /Eth /Ntilde
/Ograve /Oacute /Ocircumflex /Otilde /Odieresis
/multiply /Oslash /Ugrave /Uacute /Ucircumflex
/Udieresis /Yacute /Thorn /germandbls /agrave
/aacute /acircumflex /atilde /adieresis /aring
/ae /ccedilla /egrave /eacute /ecircumflex
/edieresis /igrave /iacute /icircumflex /idieresis
/eth /ntilde /ograve /oacute /ocircumflex
/otilde /odieresis /divide /oslash /ugrave
/uacute /ucircumflex /udieresis /yacute /thorn
/ydieresis
] def
%%EndResource
%FOPBeginFontReencode
/Courier-Bold findfont
dup length dict begin
  {1 index /FID ne {def} {pop pop} ifelse} forall
  /Encoding WinAnsiEncoding def
  currentdict
end
/Courier-Bold exch definefont pop
/Helvetica findfont
dup length dict begin
  {1 index /FID ne {def} {pop pop} ifelse} forall
  /Encoding WinAnsiEncoding def
  currentdict
end
/Helvetica exch definefont pop
/Courier-BoldOblique findfont
dup length dict begin
  {1 index /FID ne {def} {pop pop} ifelse} forall
  /Encoding WinAnsiEncoding def
  currentdict
end
/Courier-BoldOblique exch definefont pop
/Courier-Oblique findfont
dup length dict begin
  {1 index /FID ne {def} {pop pop} ifelse} forall
  /Encoding WinAnsiEncoding def
  currentdict
end
/Courier-Oblique exch definefont pop
/Times-Roman findfont
dup length dict begin
  {1 index /FID ne {def} {pop pop} ifelse} forall
  /Encoding WinAnsiEncoding def
  currentdict
end
/Times-Roman exch definefont pop
/Helvetica-BoldOblique findfont
dup length dict begin
  {1 index /FID ne {def} {pop pop} ifelse} forall
  /Encoding WinAnsiEncoding def
  currentdict
end
/Helvetica-BoldOblique exch definefont pop
/Helvetica-Bold findfont
dup length dict begin
  {1 index /FID ne {def} {pop pop} ifelse} forall
  /Encoding WinAnsiEncoding def
  currentdict
end
/Helvetica-Bold exch definefont pop
/Helvetica-Oblique findfont
dup length dict begin
  {1 index /FID ne {def} {pop pop} ifelse} forall
  /Encoding WinAnsiEncoding def
  currentdict
end
/Helvetica-Oblique exch definefont pop
/Times-BoldItalic findfont
dup length dict begin
  {1 index /FID ne {def} {pop pop} ifelse} forall
  /Encoding WinAnsiEncoding def
  currentdict
end
/Times-BoldItalic exch definefont pop
/Courier findfont
dup length dict begin
  {1 index /FID ne {def} {pop pop} ifelse} forall
  /Encoding WinAnsiEncoding def
  currentdict
end
/Courier exch definefont pop
/Times-Italic findfont
dup length dict begin
  {1 index /FID ne {def} {pop pop} ifelse} forall
  /Encoding WinAnsiEncoding def
  currentdict
end
/Times-Italic exch definefont pop
/Times-Bold findfont
dup length dict begin
  {1 index /FID ne {def} {pop pop} ifelse} forall
  /Encoding WinAnsiEncoding def
  currentdict
end
/Times-Bold exch definefont pop
%FOPEndFontReencode
%%EndProlog
%%Page: 1 1
%%PageBoundingBox: 0 0 420 315
%%BeginPageSetup
[1 0 0 -1 0 315] CT
%%EndPageSetup
GS
[0.75 0 0 0.75 0 0] CT
1 GC
N
0 0 560 420 re
f
GR
GS
[0.75 0 0 0.75 0 0] CT
1 GC
N
0 0 560 420 re
f
GR
GS
[0.75 0 0 0.75 0 0] CT
1 GC
N
73 374 M
507 374 L
507 31 L
73 31 L
cp
f
GR
GS
[0.75 0 0 0.75 0 0] CT
0.149 GC
2 setlinecap
1 LJ
0.667 LW
N
73 374 M
507 374 L
S
GR
GS
[0.75 0 0 0.75 0 0] CT
0.149 GC
2 setlinecap
1 LJ
0.667 LW
N
73 374 M
73 369.66 L
S
GR
GS
[0.75 0 0 0.75 0 0] CT
0.149 GC
2 setlinecap
1 LJ
0.667 LW
N
181.5 374 M
181.5 369.66 L
S
GR
GS
[0.75 0 0 0.75 0 0] CT
0.149 GC
2 setlinecap
1 LJ
0.667 LW
N
290 374 M
290 369.66 L
S
GR
GS
[0.75 0 0 0.75 0 0] CT
0.149 GC
2 setlinecap
1 LJ
0.667 LW
N
398.5 374 M
398.5 369.66 L
S
GR
GS
[0.75 0 0 0.75 0 0] CT
0.149 GC
2 setlinecap
1 LJ
0.667 LW
N
507 374 M
507 369.66 L
S
GR
GS
[0.75 0 0 0.75 54.75 284.50001] CT
0.149 GC
/Helvetica 13.333 F
GS
[1 0 0 1 0 0] CT
-6.5 13 moveto 
1 -1 scale
(-1) t 
GR
GR
GS
[0.75 0 0 0.75 136.125 284.50001] CT
0.149 GC
/Helvetica 13.333 F
GS
[1 0 0 1 0 0] CT
-13 13 moveto 
1 -1 scale
(-0.5) t 
GR
GR
GS
[0.75 0 0 0.75 217.5 284.50001] CT
0.149 GC
/Helvetica 13.333 F
GS
[1 0 0 1 0 0] CT
-4.5 13 moveto 
1 -1 scale
(0) t 
GR
GR
GS
[0.75 0 0 0.75 298.875 284.50001] CT
0.149 GC
/Helvetica 13.333 F
GS
[1 0 0 1 0 0] CT
-10.5 13 moveto 
1 -1 scale
(0.5) t 
GR
GR
GS
[0.75 0 0 0.75 380.25 284.50001] CT
0.149 GC
/Helvetica 13.333 F
GS
[1 0 0 1 0 0] CT
-4.5 13 moveto 
1 -1 scale
(1) t 
GR
GR
GS
[0.75 0 0 0.75 0 0] CT
0.149 GC
2 setlinecap
1 LJ
0.667 LW
N
73 374 M
73 31 L
S
GR
GS
[0.75 0 0 0.75 0 0] CT
0.149 GC
2 setlinecap
1 LJ
0.667 LW
N
73 374 M
77.34 374 L
S
GR
GS
[0.75 0 0 0.75 0 0] CT
0.149 GC
2 setlinecap
1 LJ
0.667 LW
N
73 339.7 M
77.34 339.7 L
S
GR
GS
[0.75 0 0 0.75 0 0] CT
0.149 GC
2 setlinecap
1 LJ
0.667 LW
N
73 305.4 M
77.34 305.4 L
S
GR
GS
[0.75 0 0 0.75 0 0] CT
0.149 GC
2 setlinecap
1 LJ
0.667 LW
N
73 271.1 M
77.34 271.1 L
S
GR
GS
[0.75 0 0 0.75 0 0] CT
0.149 GC
2 setlinecap
1 LJ
0.667 LW
N
73 236.8 M
77.34 236.8 L
S
GR
GS
[0.75 0 0 0.75 0 0] CT
0.149 GC
2 setlinecap
1 LJ
0.667 LW
N
73 202.5 M
77.34 202.5 L
S
GR
GS
[0.75 0 0 0.75 0 0] CT
0.149 GC
2 setlinecap
1 LJ
0.667 LW
N
73 168.2 M
77.34 168.2 L
S
GR
GS
[0.75 0 0 0.75 0 0] CT
0.149 GC
2 setlinecap
1 LJ
0.667 LW
N
73 133.9 M
77.34 133.9 L
S
GR
GS
[0.75 0 0 0.75 0 0] CT
0.149 GC
2 setlinecap
1 LJ
0.667 LW
N
73 99.6 M
77.34 99.6 L
S
GR
GS
[0.75 0 0 0.75 0 0] CT
0.149 GC
2 setlinecap
1 LJ
0.667 LW
N
73 65.3 M
77.34 65.3 L
S
GR
GS
[0.75 0 0 0.75 0 0] CT
0.149 GC
2 setlinecap
1 LJ
0.667 LW
N
73 31 M
77.34 31 L
S
GR
GS
[0.75 0 0 0.75 50.74999 280.5] CT
0.149 GC
/Helvetica 13.333 F
GS
[1 0 0 1 0 0] CT
-13 4.5 moveto 
1 -1 scale
(-1) t 
GR
GR
GS
[0.75 0 0 0.75 50.74999 254.77501] CT
0.149 GC
/Helvetica 13.333 F
GS
[1 0 0 1 0 0] CT
-26 4.5 moveto 
1 -1 scale
(-0.8) t 
GR
GR
GS
[0.75 0 0 0.75 50.74999 229.05] CT
0.149 GC
/Helvetica 13.333 F
GS
[1 0 0 1 0 0] CT
-26 4.5 moveto 
1 -1 scale
(-0.6) t 
GR
GR
GS
[0.75 0 0 0.75 50.74999 203.325] CT
0.149 GC
/Helvetica 13.333 F
GS
[1 0 0 1 0 0] CT
-26 4.5 moveto 
1 -1 scale
(-0.4) t 
GR
GR
GS
[0.75 0 0 0.75 50.74999 177.6] CT
0.149 GC
/Helvetica 13.333 F
GS
[1 0 0 1 0 0] CT
-26 4.5 moveto 
1 -1 scale
(-0.2) t 
GR
GR
GS
[0.75 0 0 0.75 50.74999 151.875] CT
0.149 GC
/Helvetica 13.333 F
GS
[1 0 0 1 0 0] CT
-9 4.5 moveto 
1 -1 scale
(0) t 
GR
GR
GS
[0.75 0 0 0.75 50.74999 126.15] CT
0.149 GC
/Helvetica 13.333 F
GS
[1 0 0 1 0 0] CT
-21 4.5 moveto 
1 -1 scale
(0.2) t 
GR
GR
GS
[0.75 0 0 0.75 50.74999 100.425] CT
0.149 GC
/Helvetica 13.333 F
GS
[1 0 0 1 0 0] CT
-21 4.5 moveto 
1 -1 scale
(0.4) t 
GR
GR
GS
[0.75 0 0 0.75 50.74999 74.7] CT
0.149 GC
/Helvetica 13.333 F
GS
[1 0 0 1 0 0] CT
-21 4.5 moveto 
1 -1 scale
(0.6) t 
GR
GR
GS
[0.75 0 0 0.75 50.74999 48.975] CT
0.149 GC
/Helvetica 13.333 F
GS
[1 0 0 1 0 0] CT
-21 4.5 moveto 
1 -1 scale
(0.8) t 
GR
GR
GS
[0.75 0 0 0.75 50.74999 23.25] CT
0.149 GC
/Helvetica 13.333 F
GS
[1 0 0 1 0 0] CT
-9 4.5 moveto 
1 -1 scale
(1) t 
GR
GR
GS
[0.75 0 0 0.75 0 0] CT
0.208 0.165 0.525 RC
N
83.214 369.5 M
82.314 366.729 L
79.957 365.017 L
77.043 365.017 L
74.686 366.729 L
73.786 369.5 L
74.686 372.271 L
77.043 373.983 L
79.957 373.983 L
82.314 372.271 L
83.214 369.5 L
cp
f
GR
GS
[0.75 0 0 0.75 0 0] CT
0.192 0.263 0.725 RC
N
107.214 369.5 M
106.314 366.729 L
103.957 365.017 L
101.043 365.017 L
98.686 366.729 L
97.786 369.5 L
98.686 372.271 L
101.043 373.983 L
103.957 373.983 L
106.314 372.271 L
107.214 369.5 L
cp
f
GR
GS
[0.75 0 0 0.75 0 0] CT
0.059 0.357 0.867 RC
N
147.214 369.5 M
146.314 366.729 L
143.957 365.017 L
141.043 365.017 L
138.686 366.729 L
137.786 369.5 L
138.686 372.271 L
141.043 373.983 L
143.957 373.983 L
146.314 372.271 L
147.214 369.5 L
cp
f
GR
GS
[0.75 0 0 0.75 0 0] CT
0.016 0.424 0.878 RC
N
200.214 369.5 M
199.314 366.729 L
196.957 365.017 L
194.043 365.017 L
191.686 366.729 L
190.786 369.5 L
191.686 372.271 L
194.043 373.983 L
196.957 373.983 L
199.314 372.271 L
200.214 369.5 L
cp
f
GR
GS
[0.75 0 0 0.75 0 0] CT
0.031 0.439 0.871 RC
N
262.214 369.5 M
261.314 366.729 L
258.957 365.017 L
256.043 365.017 L
253.686 366.729 L
252.786 369.5 L
253.686 372.271 L
256.043 373.983 L
258.957 373.983 L
261.314 372.271 L
262.214 369.5 L
cp
f
GR
GS
[0.75 0 0 0.75 0 0] CT
0.031 0.439 0.871 RC
N
327.214 369.5 M
326.314 366.729 L
323.957 365.017 L
321.043 365.017 L
318.686 366.729 L
317.786 369.5 L
318.686 372.271 L
321.043 373.983 L
323.957 373.983 L
326.314 372.271 L
327.214 369.5 L
cp
f
GR
GS
[0.75 0 0 0.75 0 0] CT
0.016 0.424 0.878 RC
N
389.214 369.5 M
388.314 366.729 L
385.957 365.017 L
383.043 365.017 L
380.686 366.729 L
379.786 369.5 L
380.686 372.271 L
383.043 373.983 L
385.957 373.983 L
388.314 372.271 L
389.214 369.5 L
cp
f
GR
GS
[0.75 0 0 0.75 0 0] CT
0.059 0.357 0.867 RC
N
442.214 369.5 M
441.314 366.729 L
438.957 365.017 L
436.043 365.017 L
433.686 366.729 L
432.786 369.5 L
433.686 372.271 L
436.043 373.983 L
438.957 373.983 L
441.314 372.271 L
442.214 369.5 L
cp
f
GR
GS
[0.75 0 0 0.75 0 0] CT
0.192 0.263 0.725 RC
N
482.214 369.5 M
481.314 366.729 L
478.957 365.017 L
476.043 365.017 L
473.686 366.729 L
472.786 369.5 L
473.686 372.271 L
476.043 373.983 L
478.957 373.983 L
481.314 372.271 L
482.214 369.5 L
cp
f
GR
GS
[0.75 0 0 0.75 0 0] CT
0.208 0.165 0.525 RC
N
506.214 369.5 M
505.314 366.729 L
502.957 365.017 L
500.043 365.017 L
497.686 366.729 L
496.786 369.5 L
497.686 372.271 L
500.043 373.983 L
502.957 373.983 L
505.314 372.271 L
506.214 369.5 L
cp
f
GR
GS
[0.75 0 0 0.75 0 0] CT
0.192 0.263 0.725 RC
N
83.214 350.5 M
82.314 347.729 L
79.957 346.017 L
77.043 346.017 L
74.686 347.729 L
73.786 350.5 L
74.686 353.271 L
77.043 354.983 L
79.957 354.983 L
82.314 353.271 L
83.214 350.5 L
cp
f
GR
GS
[0.75 0 0 0.75 0 0] CT
0.063 0.471 0.855 RC
N
107.214 350.5 M
106.314 347.729 L
103.957 346.017 L
101.043 346.017 L
98.686 347.729 L
97.786 350.5 L
98.686 353.271 L
101.043 354.983 L
103.957 354.983 L
106.314 353.271 L
107.214 350.5 L
cp
f
GR
GS
[0.75 0 0 0.75 0 0] CT
0.024 0.612 0.812 RC
N
147.214 350.5 M
146.314 347.729 L
143.957 346.017 L
141.043 346.017 L
138.686 347.729 L
137.786 350.5 L
138.686 353.271 L
141.043 354.983 L
143.957 354.983 L
146.314 353.271 L
147.214 350.5 L
cp
f
GR
GS
[0.75 0 0 0.75 0 0] CT
0.059 0.682 0.722 RC
N
200.214 350.5 M
199.314 347.729 L
196.957 346.017 L
194.043 346.017 L
191.686 347.729 L
190.786 350.5 L
191.686 353.271 L
194.043 354.983 L
196.957 354.983 L
199.314 353.271 L
200.214 350.5 L
cp
f
GR
GS
[0.75 0 0 0.75 0 0] CT
0.145 0.706 0.663 RC
N
262.214 350.5 M
261.314 347.729 L
258.957 346.017 L
256.043 346.017 L
253.686 347.729 L
252.786 350.5 L
253.686 353.271 L
256.043 354.983 L
258.957 354.983 L
261.314 353.271 L
262.214 350.5 L
cp
f
GR
GS
[0.75 0 0 0.75 0 0] CT
0.145 0.706 0.663 RC
N
327.214 350.5 M
326.314 347.729 L
323.957 346.017 L
321.043 346.017 L
318.686 347.729 L
317.786 350.5 L
318.686 353.271 L
321.043 354.983 L
323.957 354.983 L
326.314 353.271 L
327.214 350.5 L
cp
f
GR
GS
[0.75 0 0 0.75 0 0] CT
0.059 0.682 0.722 RC
N
389.214 350.5 M
388.314 347.729 L
385.957 346.017 L
383.043 346.017 L
380.686 347.729 L
379.786 350.5 L
380.686 353.271 L
383.043 354.983 L
385.957 354.983 L
388.314 353.271 L
389.214 350.5 L
cp
f
GR
GS
[0.75 0 0 0.75 0 0] CT
0.024 0.612 0.812 RC
N
442.214 350.5 M
441.314 347.729 L
438.957 346.017 L
436.043 346.017 L
433.686 347.729 L
432.786 350.5 L
433.686 353.271 L
436.043 354.983 L
438.957 354.983 L
441.314 353.271 L
442.214 350.5 L
cp
f
GR
GS
[0.75 0 0 0.75 0 0] CT
0.063 0.471 0.855 RC
N
482.214 350.5 M
481.314 347.729 L
478.957 346.017 L
476.043 346.017 L
473.686 347.729 L
472.786 350.5 L
473.686 353.271 L
476.043 354.983 L
478.957 354.983 L
481.314 353.271 L
482.214 350.5 L
cp
f
GR
GS
[0.75 0 0 0.75 0 0] CT
0.192 0.263 0.725 RC
N
506.214 350.5 M
505.314 347.729 L
502.957 346.017 L
500.043 346.017 L
497.686 347.729 L
496.786 350.5 L
497.686 353.271 L
500.043 354.983 L
502.957 354.983 L
505.314 353.271 L
506.214 350.5 L
cp
f
GR
GS
[0.75 0 0 0.75 0 0] CT
0.059 0.357 0.867 RC
N
83.214 319.5 M
82.314 316.729 L
79.957 315.017 L
77.043 315.017 L
74.686 316.729 L
73.786 319.5 L
74.686 322.271 L
77.043 323.983 L
79.957 323.983 L
82.314 322.271 L
83.214 319.5 L
cp
f
GR
GS
[0.75 0 0 0.75 0 0] CT
0.024 0.612 0.812 RC
N
107.214 319.5 M
106.314 316.729 L
103.957 315.017 L
101.043 315.017 L
98.686 316.729 L
97.786 319.5 L
98.686 322.271 L
101.043 323.983 L
103.957 323.983 L
106.314 322.271 L
107.214 319.5 L
cp
f
GR
GS
[0.75 0 0 0.75 0 0] CT
0.255 0.729 0.592 RC
N
147.214 319.5 M
146.314 316.729 L
143.957 315.017 L
141.043 315.017 L
138.686 316.729 L
137.786 319.5 L
138.686 322.271 L
141.043 323.983 L
143.957 323.983 L
146.314 322.271 L
147.214 319.5 L
cp
f
GR
GS
[0.75 0 0 0.75 0 0] CT
0.647 0.745 0.416 RC
N
200.214 319.5 M
199.314 316.729 L
196.957 315.017 L
194.043 315.017 L
191.686 316.729 L
190.786 319.5 L
191.686 322.271 L
194.043 323.983 L
196.957 323.983 L
199.314 322.271 L
200.214 319.5 L
cp
f
GR
GS
[0.75 0 0 0.75 0 0] CT
0.784 0.733 0.361 RC
N
262.214 319.5 M
261.314 316.729 L
258.957 315.017 L
256.043 315.017 L
253.686 316.729 L
252.786 319.5 L
253.686 322.271 L
256.043 323.983 L
258.957 323.983 L
261.314 322.271 L
262.214 319.5 L
cp
f
GR
GS
[0.75 0 0 0.75 0 0] CT
0.784 0.733 0.361 RC
N
327.214 319.5 M
326.314 316.729 L
323.957 315.017 L
321.043 315.017 L
318.686 316.729 L
317.786 319.5 L
318.686 322.271 L
321.043 323.983 L
323.957 323.983 L
326.314 322.271 L
327.214 319.5 L
cp
f
GR
GS
[0.75 0 0 0.75 0 0] CT
0.647 0.745 0.416 RC
N
389.214 319.5 M
388.314 316.729 L
385.957 315.017 L
383.043 315.017 L
380.686 316.729 L
379.786 319.5 L
380.686 322.271 L
383.043 323.983 L
385.957 323.983 L
388.314 322.271 L
389.214 319.5 L
cp
f
GR
GS
[0.75 0 0 0.75 0 0] CT
0.255 0.729 0.592 RC
N
442.214 319.5 M
441.314 316.729 L
438.957 315.017 L
436.043 315.017 L
433.686 316.729 L
432.786 319.5 L
433.686 322.271 L
436.043 323.983 L
438.957 323.983 L
441.314 322.271 L
442.214 319.5 L
cp
f
GR
GS
[0.75 0 0 0.75 0 0] CT
0.024 0.612 0.812 RC
N
482.214 319.5 M
481.314 316.729 L
478.957 315.017 L
476.043 315.017 L
473.686 316.729 L
472.786 319.5 L
473.686 322.271 L
476.043 323.983 L
478.957 323.983 L
481.314 322.271 L
482.214 319.5 L
cp
f
GR
GS
[0.75 0 0 0.75 0 0] CT
0.059 0.357 0.867 RC
N
506.214 319.5 M
505.314 316.729 L
502.957 315.017 L
500.043 315.017 L
497.686 316.729 L
496.786 319.5 L
497.686 322.271 L
500.043 323.983 L
502.957 323.983 L
505.314 322.271 L
506.214 319.5 L
cp
f
GR
GS
[0.75 0 0 0.75 0 0] CT
0.016 0.424 0.878 RC
N
83.214 276.5 M
82.314 273.729 L
79.957 272.017 L
77.043 272.017 L
74.686 273.729 L
73.786 276.5 L
74.686 279.271 L
77.043 280.983 L
79.957 280.983 L
82.314 279.271 L
83.214 276.5 L
cp
f
GR
GS
[0.75 0 0 0.75 0 0] CT
0.059 0.682 0.722 RC
N
107.214 276.5 M
106.314 273.729 L
103.957 272.017 L
101.043 272.017 L
98.686 273.729 L
97.786 276.5 L
98.686 279.271 L
101.043 280.983 L
103.957 280.983 L
106.314 279.271 L
107.214 276.5 L
cp
f
GR
GS
[0.75 0 0 0.75 0 0] CT
0.647 0.745 0.416 RC
N
147.214 276.5 M
146.314 273.729 L
143.957 272.017 L
141.043 272.017 L
138.686 273.729 L
137.786 276.5 L
138.686 279.271 L
141.043 280.983 L
143.957 280.983 L
146.314 279.271 L
147.214 276.5 L
cp
f
GR
GS
[0.75 0 0 0.75 0 0] CT
0.973 0.729 0.263 RC
N
200.214 276.5 M
199.314 273.729 L
196.957 272.017 L
194.043 272.017 L
191.686 273.729 L
190.786 276.5 L
191.686 279.271 L
194.043 280.983 L
196.957 280.983 L
199.314 279.271 L
200.214 276.5 L
cp
f
GR
GS
[0.75 0 0 0.75 0 0] CT
0.969 0.847 0.145 RC
N
262.214 276.5 M
261.314 273.729 L
258.957 272.017 L
256.043 272.017 L
253.686 273.729 L
252.786 276.5 L
253.686 279.271 L
256.043 280.983 L
258.957 280.983 L
261.314 279.271 L
262.214 276.5 L
cp
f
GR
GS
[0.75 0 0 0.75 0 0] CT
0.969 0.847 0.145 RC
N
327.214 276.5 M
326.314 273.729 L
323.957 272.017 L
321.043 272.017 L
318.686 273.729 L
317.786 276.5 L
318.686 279.271 L
321.043 280.983 L
323.957 280.983 L
326.314 279.271 L
327.214 276.5 L
cp
f
GR
GS
[0.75 0 0 0.75 0 0] CT
0.973 0.729 0.263 RC
N
389.214 276.5 M
388.314 273.729 L
385.957 272.017 L
383.043 272.017 L
380.686 273.729 L
379.786 276.5 L
380.686 279.271 L
383.043 280.983 L
385.957 280.983 L
388.314 279.271 L
389.214 276.5 L
cp
f
GR
GS
[0.75 0 0 0.75 0 0] CT
0.647 0.745 0.416 RC
N
442.214 276.5 M
441.314 273.729 L
438.957 272.017 L
436.043 272.017 L
433.686 273.729 L
432.786 276.5 L
433.686 279.271 L
436.043 280.983 L
438.957 280.983 L
441.314 279.271 L
442.214 276.5 L
cp
f
GR
GS
[0.75 0 0 0.75 0 0] CT
0.059 0.682 0.722 RC
N
482.214 276.5 M
481.314 273.729 L
478.957 272.017 L
476.043 272.017 L
473.686 273.729 L
472.786 276.5 L
473.686 279.271 L
476.043 280.983 L
478.957 280.983 L
481.314 279.271 L
482.214 276.5 L
cp
f
GR
GS
[0.75 0 0 0.75 0 0] CT
0.016 0.424 0.878 RC
N
506.214 276.5 M
505.314 273.729 L
502.957 272.017 L
500.043 272.017 L
497.686 273.729 L
496.786 276.5 L
497.686 279.271 L
500.043 280.983 L
502.957 280.983 L
505.314 279.271 L
506.214 276.5 L
cp
f
GR
GS
[0.75 0 0 0.75 0 0] CT
0.031 0.439 0.871 RC
N
83.214 228.5 M
82.314 225.729 L
79.957 224.017 L
77.043 224.017 L
74.686 225.729 L
73.786 228.5 L
74.686 231.271 L
77.043 232.983 L
79.957 232.983 L
82.314 231.271 L
83.214 228.5 L
cp
f
GR
GS
[0.75 0 0 0.75 0 0] CT
0.145 0.706 0.663 RC
N
107.214 228.5 M
106.314 225.729 L
103.957 224.017 L
101.043 224.017 L
98.686 225.729 L
97.786 228.5 L
98.686 231.271 L
101.043 232.983 L
103.957 232.983 L
106.314 231.271 L
107.214 228.5 L
cp
f
GR
GS
[0.75 0 0 0.75 0 0] CT
0.784 0.733 0.361 RC
N
147.214 228.5 M
146.314 225.729 L
143.957 224.017 L
141.043 224.017 L
138.686 225.729 L
137.786 228.5 L
138.686 231.271 L
141.043 232.983 L
143.957 232.983 L
146.314 231.271 L
147.214 228.5 L
cp
f
GR
GS
[0.75 0 0 0.75 0 0] CT
0.969 0.847 0.145 RC
N
200.214 228.5 M
199.314 225.729 L
196.957 224.017 L
194.043 224.017 L
191.686 225.729 L
190.786 228.5 L
191.686 231.271 L
194.043 232.983 L
196.957 232.983 L
199.314 231.271 L
200.214 228.5 L
cp
f
GR
GS
[0.75 0 0 0.75 0 0] CT
0.973 0.98 0.051 RC
N
262.214 228.5 M
261.314 225.729 L
258.957 224.017 L
256.043 224.017 L
253.686 225.729 L
252.786 228.5 L
253.686 231.271 L
256.043 232.983 L
258.957 232.983 L
261.314 231.271 L
262.214 228.5 L
cp
f
GR
GS
[0.75 0 0 0.75 0 0] CT
0.973 0.98 0.051 RC
N
327.214 228.5 M
326.314 225.729 L
323.957 224.017 L
321.043 224.017 L
318.686 225.729 L
317.786 228.5 L
318.686 231.271 L
321.043 232.983 L
323.957 232.983 L
326.314 231.271 L
327.214 228.5 L
cp
f
GR
GS
[0.75 0 0 0.75 0 0] CT
0.969 0.847 0.145 RC
N
389.214 228.5 M
388.314 225.729 L
385.957 224.017 L
383.043 224.017 L
380.686 225.729 L
379.786 228.5 L
380.686 231.271 L
383.043 232.983 L
385.957 232.983 L
388.314 231.271 L
389.214 228.5 L
cp
f
GR
GS
[0.75 0 0 0.75 0 0] CT
0.784 0.733 0.361 RC
N
442.214 228.5 M
441.314 225.729 L
438.957 224.017 L
436.043 224.017 L
433.686 225.729 L
432.786 228.5 L
433.686 231.271 L
436.043 232.983 L
438.957 232.983 L
441.314 231.271 L
442.214 228.5 L
cp
f
GR
GS
[0.75 0 0 0.75 0 0] CT
0.145 0.706 0.663 RC
N
482.214 228.5 M
481.314 225.729 L
478.957 224.017 L
476.043 224.017 L
473.686 225.729 L
472.786 228.5 L
473.686 231.271 L
476.043 232.983 L
478.957 232.983 L
481.314 231.271 L
482.214 228.5 L
cp
f
GR
GS
[0.75 0 0 0.75 0 0] CT
0.031 0.439 0.871 RC
N
506.214 228.5 M
505.314 225.729 L
502.957 224.017 L
500.043 224.017 L
497.686 225.729 L
496.786 228.5 L
497.686 231.271 L
500.043 232.983 L
502.957 232.983 L
505.314 231.271 L
506.214 228.5 L
cp
f
GR
GS
[0.75 0 0 0.75 0 0] CT
0.031 0.439 0.871 RC
N
83.214 176.5 M
82.314 173.729 L
79.957 172.017 L
77.043 172.017 L
74.686 173.729 L
73.786 176.5 L
74.686 179.271 L
77.043 180.983 L
79.957 180.983 L
82.314 179.271 L
83.214 176.5 L
cp
f
GR
GS
[0.75 0 0 0.75 0 0] CT
0.145 0.706 0.663 RC
N
107.214 176.5 M
106.314 173.729 L
103.957 172.017 L
101.043 172.017 L
98.686 173.729 L
97.786 176.5 L
98.686 179.271 L
101.043 180.983 L
103.957 180.983 L
106.314 179.271 L
107.214 176.5 L
cp
f
GR
GS
[0.75 0 0 0.75 0 0] CT
0.784 0.733 0.361 RC
N
147.214 176.5 M
146.314 173.729 L
143.957 172.017 L
141.043 172.017 L
138.686 173.729 L
137.786 176.5 L
138.686 179.271 L
141.043 180.983 L
143.957 180.983 L
146.314 179.271 L
147.214 176.5 L
cp
f
GR
GS
[0.75 0 0 0.75 0 0] CT
0.969 0.847 0.145 RC
N
200.214 176.5 M
199.314 173.729 L
196.957 172.017 L
194.043 172.017 L
191.686 173.729 L
190.786 176.5 L
191.686 179.271 L
194.043 180.983 L
196.957 180.983 L
199.314 179.271 L
200.214 176.5 L
cp
f
GR
GS
[0.75 0 0 0.75 0 0] CT
0.973 0.98 0.051 RC
N
262.214 176.5 M
261.314 173.729 L
258.957 172.017 L
256.043 172.017 L
253.686 173.729 L
252.786 176.5 L
253.686 179.271 L
256.043 180.983 L
258.957 180.983 L
261.314 179.271 L
262.214 176.5 L
cp
f
GR
GS
[0.75 0 0 0.75 0 0] CT
0.973 0.98 0.051 RC
N
327.214 176.5 M
326.314 173.729 L
323.957 172.017 L
321.043 172.017 L
318.686 173.729 L
317.786 176.5 L
318.686 179.271 L
321.043 180.983 L
323.957 180.983 L
326.314 179.271 L
327.214 176.5 L
cp
f
GR
GS
[0.75 0 0 0.75 0 0] CT
0.969 0.847 0.145 RC
N
389.214 176.5 M
388.314 173.729 L
385.957 172.017 L
383.043 172.017 L
380.686 173.729 L
379.786 176.5 L
380.686 179.271 L
383.043 180.983 L
385.957 180.983 L
388.314 179.271 L
389.214 176.5 L
cp
f
GR
GS
[0.75 0 0 0.75 0 0] CT
0.784 0.733 0.361 RC
N
442.214 176.5 M
441.314 173.729 L
438.957 172.017 L
436.043 172.017 L
433.686 173.729 L
432.786 176.5 L
433.686 179.271 L
436.043 180.983 L
438.957 180.983 L
441.314 179.271 L
442.214 176.5 L
cp
f
GR
GS
[0.75 0 0 0.75 0 0] CT
0.145 0.706 0.663 RC
N
482.214 176.5 M
481.314 173.729 L
478.957 172.017 L
476.043 172.017 L
473.686 173.729 L
472.786 176.5 L
473.686 179.271 L
476.043 180.983 L
478.957 180.983 L
481.314 179.271 L
482.214 176.5 L
cp
f
GR
GS
[0.75 0 0 0.75 0 0] CT
0.031 0.439 0.871 RC
N
506.214 176.5 M
505.314 173.729 L
502.957 172.017 L
500.043 172.017 L
497.686 173.729 L
496.786 176.5 L
497.686 179.271 L
500.043 180.983 L
502.957 180.983 L
505.314 179.271 L
506.214 176.5 L
cp
f
GR
GS
[0.75 0 0 0.75 0 0] CT
0.016 0.424 0.878 RC
N
83.214 128.5 M
82.314 125.729 L
79.957 124.017 L
77.043 124.017 L
74.686 125.729 L
73.786 128.5 L
74.686 131.271 L
77.043 132.983 L
79.957 132.983 L
82.314 131.271 L
83.214 128.5 L
cp
f
GR
GS
[0.75 0 0 0.75 0 0] CT
0.059 0.682 0.722 RC
N
107.214 128.5 M
106.314 125.729 L
103.957 124.017 L
101.043 124.017 L
98.686 125.729 L
97.786 128.5 L
98.686 131.271 L
101.043 132.983 L
103.957 132.983 L
106.314 131.271 L
107.214 128.5 L
cp
f
GR
GS
[0.75 0 0 0.75 0 0] CT
0.647 0.745 0.416 RC
N
147.214 128.5 M
146.314 125.729 L
143.957 124.017 L
141.043 124.017 L
138.686 125.729 L
137.786 128.5 L
138.686 131.271 L
141.043 132.983 L
143.957 132.983 L
146.314 131.271 L
147.214 128.5 L
cp
f
GR
GS
[0.75 0 0 0.75 0 0] CT
0.973 0.729 0.263 RC
N
200.214 128.5 M
199.314 125.729 L
196.957 124.017 L
194.043 124.017 L
191.686 125.729 L
190.786 128.5 L
191.686 131.271 L
194.043 132.983 L
196.957 132.983 L
199.314 131.271 L
200.214 128.5 L
cp
f
GR
GS
[0.75 0 0 0.75 0 0] CT
0.969 0.847 0.145 RC
N
262.214 128.5 M
261.314 125.729 L
258.957 124.017 L
256.043 124.017 L
253.686 125.729 L
252.786 128.5 L
253.686 131.271 L
256.043 132.983 L
258.957 132.983 L
261.314 131.271 L
262.214 128.5 L
cp
f
GR
GS
[0.75 0 0 0.75 0 0] CT
0.969 0.847 0.145 RC
N
327.214 128.5 M
326.314 125.729 L
323.957 124.017 L
321.043 124.017 L
318.686 125.729 L
317.786 128.5 L
318.686 131.271 L
321.043 132.983 L
323.957 132.983 L
326.314 131.271 L
327.214 128.5 L
cp
f
GR
GS
[0.75 0 0 0.75 0 0] CT
0.973 0.729 0.263 RC
N
389.214 128.5 M
388.314 125.729 L
385.957 124.017 L
383.043 124.017 L
380.686 125.729 L
379.786 128.5 L
380.686 131.271 L
383.043 132.983 L
385.957 132.983 L
388.314 131.271 L
389.214 128.5 L
cp
f
GR
GS
[0.75 0 0 0.75 0 0] CT
0.647 0.745 0.416 RC
N
442.214 128.5 M
441.314 125.729 L
438.957 124.017 L
436.043 124.017 L
433.686 125.729 L
432.786 128.5 L
433.686 131.271 L
436.043 132.983 L
438.957 132.983 L
441.314 131.271 L
442.214 128.5 L
cp
f
GR
GS
[0.75 0 0 0.75 0 0] CT
0.059 0.682 0.722 RC
N
482.214 128.5 M
481.314 125.729 L
478.957 124.017 L
476.043 124.017 L
473.686 125.729 L
472.786 128.5 L
473.686 131.271 L
476.043 132.983 L
478.957 132.983 L
481.314 131.271 L
482.214 128.5 L
cp
f
GR
GS
[0.75 0 0 0.75 0 0] CT
0.016 0.424 0.878 RC
N
506.214 128.5 M
505.314 125.729 L
502.957 124.017 L
500.043 124.017 L
497.686 125.729 L
496.786 128.5 L
497.686 131.271 L
500.043 132.983 L
502.957 132.983 L
505.314 131.271 L
506.214 128.5 L
cp
f
GR
GS
[0.75 0 0 0.75 0 0] CT
0.059 0.357 0.867 RC
N
83.214 85.5 M
82.314 82.729 L
79.957 81.017 L
77.043 81.017 L
74.686 82.729 L
73.786 85.5 L
74.686 88.271 L
77.043 89.983 L
79.957 89.983 L
82.314 88.271 L
83.214 85.5 L
cp
f
GR
GS
[0.75 0 0 0.75 0 0] CT
0.024 0.612 0.812 RC
N
107.214 85.5 M
106.314 82.729 L
103.957 81.017 L
101.043 81.017 L
98.686 82.729 L
97.786 85.5 L
98.686 88.271 L
101.043 89.983 L
103.957 89.983 L
106.314 88.271 L
107.214 85.5 L
cp
f
GR
GS
[0.75 0 0 0.75 0 0] CT
0.255 0.729 0.592 RC
N
147.214 85.5 M
146.314 82.729 L
143.957 81.017 L
141.043 81.017 L
138.686 82.729 L
137.786 85.5 L
138.686 88.271 L
141.043 89.983 L
143.957 89.983 L
146.314 88.271 L
147.214 85.5 L
cp
f
GR
GS
[0.75 0 0 0.75 0 0] CT
0.647 0.745 0.416 RC
N
200.214 85.5 M
199.314 82.729 L
196.957 81.017 L
194.043 81.017 L
191.686 82.729 L
190.786 85.5 L
191.686 88.271 L
194.043 89.983 L
196.957 89.983 L
199.314 88.271 L
200.214 85.5 L
cp
f
GR
GS
[0.75 0 0 0.75 0 0] CT
0.784 0.733 0.361 RC
N
262.214 85.5 M
261.314 82.729 L
258.957 81.017 L
256.043 81.017 L
253.686 82.729 L
252.786 85.5 L
253.686 88.271 L
256.043 89.983 L
258.957 89.983 L
261.314 88.271 L
262.214 85.5 L
cp
f
GR
GS
[0.75 0 0 0.75 0 0] CT
0.784 0.733 0.361 RC
N
327.214 85.5 M
326.314 82.729 L
323.957 81.017 L
321.043 81.017 L
318.686 82.729 L
317.786 85.5 L
318.686 88.271 L
321.043 89.983 L
323.957 89.983 L
326.314 88.271 L
327.214 85.5 L
cp
f
GR
GS
[0.75 0 0 0.75 0 0] CT
0.647 0.745 0.416 RC
N
389.214 85.5 M
388.314 82.729 L
385.957 81.017 L
383.043 81.017 L
380.686 82.729 L
379.786 85.5 L
380.686 88.271 L
383.043 89.983 L
385.957 89.983 L
388.314 88.271 L
389.214 85.5 L
cp
f
GR
GS
[0.75 0 0 0.75 0 0] CT
0.255 0.729 0.592 RC
N
442.214 85.5 M
441.314 82.729 L
438.957 81.017 L
436.043 81.017 L
433.686 82.729 L
432.786 85.5 L
433.686 88.271 L
436.043 89.983 L
438.957 89.983 L
441.314 88.271 L
442.214 85.5 L
cp
f
GR
GS
[0.75 0 0 0.75 0 0] CT
0.024 0.612 0.812 RC
N
482.214 85.5 M
481.314 82.729 L
478.957 81.017 L
476.043 81.017 L
473.686 82.729 L
472.786 85.5 L
473.686 88.271 L
476.043 89.983 L
478.957 89.983 L
481.314 88.271 L
482.214 85.5 L
cp
f
GR
GS
[0.75 0 0 0.75 0 0] CT
0.059 0.357 0.867 RC
N
506.214 85.5 M
505.314 82.729 L
502.957 81.017 L
500.043 81.017 L
497.686 82.729 L
496.786 85.5 L
497.686 88.271 L
500.043 89.983 L
502.957 89.983 L
505.314 88.271 L
506.214 85.5 L
cp
f
GR
GS
[0.75 0 0 0.75 0 0] CT
0.192 0.263 0.725 RC
N
83.214 54.5 M
82.314 51.729 L
79.957 50.017 L
77.043 50.017 L
74.686 51.729 L
73.786 54.5 L
74.686 57.271 L
77.043 58.983 L
79.957 58.983 L
82.314 57.271 L
83.214 54.5 L
cp
f
GR
GS
[0.75 0 0 0.75 0 0] CT
0.063 0.471 0.855 RC
N
107.214 54.5 M
106.314 51.729 L
103.957 50.017 L
101.043 50.017 L
98.686 51.729 L
97.786 54.5 L
98.686 57.271 L
101.043 58.983 L
103.957 58.983 L
106.314 57.271 L
107.214 54.5 L
cp
f
GR
GS
[0.75 0 0 0.75 0 0] CT
0.024 0.612 0.812 RC
N
147.214 54.5 M
146.314 51.729 L
143.957 50.017 L
141.043 50.017 L
138.686 51.729 L
137.786 54.5 L
138.686 57.271 L
141.043 58.983 L
143.957 58.983 L
146.314 57.271 L
147.214 54.5 L
cp
f
GR
GS
[0.75 0 0 0.75 0 0] CT
0.059 0.682 0.722 RC
N
200.214 54.5 M
199.314 51.729 L
196.957 50.017 L
194.043 50.017 L
191.686 51.729 L
190.786 54.5 L
191.686 57.271 L
194.043 58.983 L
196.957 58.983 L
199.314 57.271 L
200.214 54.5 L
cp
f
GR
GS
[0.75 0 0 0.75 0 0] CT
0.145 0.706 0.663 RC
N
262.214 54.5 M
261.314 51.729 L
258.957 50.017 L
256.043 50.017 L
253.686 51.729 L
252.786 54.5 L
253.686 57.271 L
256.043 58.983 L
258.957 58.983 L
261.314 57.271 L
262.214 54.5 L
cp
f
GR
GS
[0.75 0 0 0.75 0 0] CT
0.145 0.706 0.663 RC
N
327.214 54.5 M
326.314 51.729 L
323.957 50.017 L
321.043 50.017 L
318.686 51.729 L
317.786 54.5 L
318.686 57.271 L
321.043 58.983 L
323.957 58.983 L
326.314 57.271 L
327.214 54.5 L
cp
f
GR
GS
[0.75 0 0 0.75 0 0] CT
0.059 0.682 0.722 RC
N
389.214 54.5 M
388.314 51.729 L
385.957 50.017 L
383.043 50.017 L
380.686 51.729 L
379.786 54.5 L
380.686 57.271 L
383.043 58.983 L
385.957 58.983 L
388.314 57.271 L
389.214 54.5 L
cp
f
GR
GS
[0.75 0 0 0.75 0 0] CT
0.024 0.612 0.812 RC
N
442.214 54.5 M
441.314 51.729 L
438.957 50.017 L
436.043 50.017 L
433.686 51.729 L
432.786 54.5 L
433.686 57.271 L
436.043 58.983 L
438.957 58.983 L
441.314 57.271 L
442.214 54.5 L
cp
f
GR
GS
[0.75 0 0 0.75 0 0] CT
0.063 0.471 0.855 RC
N
482.214 54.5 M
481.314 51.729 L
478.957 50.017 L
476.043 50.017 L
473.686 51.729 L
472.786 54.5 L
473.686 57.271 L
476.043 58.983 L
478.957 58.983 L
481.314 57.271 L
482.214 54.5 L
cp
f
GR
GS
[0.75 0 0 0.75 0 0] CT
0.192 0.263 0.725 RC
N
506.214 54.5 M
505.314 51.729 L
502.957 50.017 L
500.043 50.017 L
497.686 51.729 L
496.786 54.5 L
497.686 57.271 L
500.043 58.983 L
502.957 58.983 L
505.314 57.271 L
506.214 54.5 L
cp
f
GR
GS
[0.75 0 0 0.75 0 0] CT
0.208 0.165 0.525 RC
N
83.214 35.5 M
82.314 32.729 L
79.957 31.017 L
77.043 31.017 L
74.686 32.729 L
73.786 35.5 L
74.686 38.271 L
77.043 39.983 L
79.957 39.983 L
82.314 38.271 L
83.214 35.5 L
cp
f
GR
GS
[0.75 0 0 0.75 0 0] CT
0.192 0.263 0.725 RC
N
107.214 35.5 M
106.314 32.729 L
103.957 31.017 L
101.043 31.017 L
98.686 32.729 L
97.786 35.5 L
98.686 38.271 L
101.043 39.983 L
103.957 39.983 L
106.314 38.271 L
107.214 35.5 L
cp
f
GR
GS
[0.75 0 0 0.75 0 0] CT
0.059 0.357 0.867 RC
N
147.214 35.5 M
146.314 32.729 L
143.957 31.017 L
141.043 31.017 L
138.686 32.729 L
137.786 35.5 L
138.686 38.271 L
141.043 39.983 L
143.957 39.983 L
146.314 38.271 L
147.214 35.5 L
cp
f
GR
GS
[0.75 0 0 0.75 0 0] CT
0.016 0.424 0.878 RC
N
200.214 35.5 M
199.314 32.729 L
196.957 31.017 L
194.043 31.017 L
191.686 32.729 L
190.786 35.5 L
191.686 38.271 L
194.043 39.983 L
196.957 39.983 L
199.314 38.271 L
200.214 35.5 L
cp
f
GR
GS
[0.75 0 0 0.75 0 0] CT
0.031 0.439 0.871 RC
N
262.214 35.5 M
261.314 32.729 L
258.957 31.017 L
256.043 31.017 L
253.686 32.729 L
252.786 35.5 L
253.686 38.271 L
256.043 39.983 L
258.957 39.983 L
261.314 38.271 L
262.214 35.5 L
cp
f
GR
GS
[0.75 0 0 0.75 0 0] CT
0.031 0.439 0.871 RC
N
327.214 35.5 M
326.314 32.729 L
323.957 31.017 L
321.043 31.017 L
318.686 32.729 L
317.786 35.5 L
318.686 38.271 L
321.043 39.983 L
323.957 39.983 L
326.314 38.271 L
327.214 35.5 L
cp
f
GR
GS
[0.75 0 0 0.75 0 0] CT
0.016 0.424 0.878 RC
N
389.214 35.5 M
388.314 32.729 L
385.957 31.017 L
383.043 31.017 L
380.686 32.729 L
379.786 35.5 L
380.686 38.271 L
383.043 39.983 L
385.957 39.983 L
388.314 38.271 L
389.214 35.5 L
cp
f
GR
GS
[0.75 0 0 0.75 0 0] CT
0.059 0.357 0.867 RC
N
442.214 35.5 M
441.314 32.729 L
438.957 31.017 L
436.043 31.017 L
433.686 32.729 L
432.786 35.5 L
433.686 38.271 L
436.043 39.983 L
438.957 39.983 L
441.314 38.271 L
442.214 35.5 L
cp
f
GR
GS
[0.75 0 0 0.75 0 0] CT
0.192 0.263 0.725 RC
N
482.214 35.5 M
481.314 32.729 L
478.957 31.017 L
476.043 31.017 L
473.686 32.729 L
472.786 35.5 L
473.686 38.271 L
476.043 39.983 L
478.957 39.983 L
481.314 38.271 L
482.214 35.5 L
cp
f
GR
GS
[0.75 0 0 0.75 0 0] CT
0.208 0.165 0.525 RC
N
506.214 35.5 M
505.314 32.729 L
502.957 31.017 L
500.043 31.017 L
497.686 32.729 L
496.786 35.5 L
497.686 38.271 L
500.043 39.983 L
502.957 39.983 L
505.314 38.271 L
506.214 35.5 L
cp
f
GR
%%Trailer
%%Pages: 1
%%EOF
