%!PS-Adobe-3.0 EPSF-3.0
%%Creator: cairo 1.14.6 (http://cairographics.org)
%%CreationDate: Mon May 28 09:54:39 2018
%%Pages: 1
%%DocumentData: Clean7Bit
%%LanguageLevel: 2
%%BoundingBox: 0 0 363 301
%%EndComments
%%BeginProlog
save
50 dict begin
/q { gsave } bind def
/Q { grestore } bind def
/cm { 6 array astore concat } bind def
/w { setlinewidth } bind def
/J { setlinecap } bind def
/j { setlinejoin } bind def
/M { setmiterlimit } bind def
/d { setdash } bind def
/m { moveto } bind def
/l { lineto } bind def
/c { curveto } bind def
/h { closepath } bind def
/re { exch dup neg 3 1 roll 5 3 roll moveto 0 rlineto
      0 exch rlineto 0 rlineto closepath } bind def
/S { stroke } bind def
/f { fill } bind def
/f* { eofill } bind def
/n { newpath } bind def
/W { clip } bind def
/W* { eoclip } bind def
/BT { } bind def
/ET { } bind def
/pdfmark where { pop globaldict /?pdfmark /exec load put }
    { globaldict begin /?pdfmark /pop load def /pdfmark
    /cleartomark load def end } ifelse
/BDC { mark 3 1 roll /BDC pdfmark } bind def
/EMC { mark /EMC pdfmark } bind def
/cairo_store_point { /cairo_point_y exch def /cairo_point_x exch def } def
/Tj { show currentpoint cairo_store_point } bind def
/TJ {
  {
    dup
    type /stringtype eq
    { show } { -0.001 mul 0 cairo_font_matrix dtransform rmoveto } ifelse
  } forall
  currentpoint cairo_store_point
} bind def
/cairo_selectfont { cairo_font_matrix aload pop pop pop 0 0 6 array astore
    cairo_font exch selectfont cairo_point_x cairo_point_y moveto } bind def
/Tf { pop /cairo_font exch def /cairo_font_matrix where
      { pop cairo_selectfont } if } bind def
/Td { matrix translate cairo_font_matrix matrix concatmatrix dup
      /cairo_font_matrix exch def dup 4 get exch 5 get cairo_store_point
      /cairo_font where { pop cairo_selectfont } if } bind def
/Tm { 2 copy 8 2 roll 6 array astore /cairo_font_matrix exch def
      cairo_store_point /cairo_font where { pop cairo_selectfont } if } bind def
/g { setgray } bind def
/rg { setrgbcolor } bind def
/d1 { setcachedevice } bind def
%%EndProlog
%%BeginSetup
%%EndSetup
%%Page: 1 1
%%BeginPageSetup
%%PageBoundingBox: 0 0 363 301
%%EndPageSetup
q 0 0 363 301 rectclip q
1 g
0 0 363 301 rectfill
0 g
87.352 16.906 m 85.598 16.906 l 82.707 3.281 l 84.461 3.281 l h
87.352 16.906 m f
93.32 7.016 m 93.32 8.461 92.77 9.996 91.414 9.996 c 89.355 9.996 87.172
 6.305 87.172 3.168 c 87.172 1.539 87.816 0.219 89.078 0.219 c 91.137 0.219
 93.32 3.938 93.32 7.016 c h
88.707 5.352 m 89.414 8.305 90.617 9.598 91.414 9.598 c 92.277 9.598 92.277
 8.09 92.277 7.844 c 92.277 7.289 92.184 6.492 91.906 5.352 c h
91.785 4.859 m 91.383 3.355 91.078 2.617 90.645 1.938 c 90.246 1.23 89.691
 0.586 89.078 0.586 c 88.34 0.586 88.215 1.633 88.215 2.371 c 88.215 3.262
 88.461 4.34 88.586 4.859 c h
91.785 4.859 m f
200.945 16.734 m 199.746 17.258 198.672 17.414 197.473 17.414 c 193.195
 17.414 189.414 13.074 189.414 8.707 c 189.414 5.816 191.352 3.355 194.363
 3.355 c 196.211 3.355 196.949 3.57 198.547 4.465 c 198.73 5.816 l 197.195
 4.895 196.301 4.617 194.824 4.617 c 192.336 4.617 191.164 6.648 191.164
 8.863 c 191.164 12.551 194.027 16.152 197.195 16.152 c 198.484 16.152 199.254
 15.844 200.332 15.137 c h
200.945 16.734 m f
206.371 7.305 m 206.371 8.75 205.816 10.285 204.465 10.285 c 202.402 10.285
 200.219 6.598 200.219 3.457 c 200.219 1.828 200.863 0.508 202.125 0.508
 c 204.188 0.508 206.371 4.227 206.371 7.305 c h
201.758 5.641 m 202.465 8.594 203.664 9.887 204.465 9.887 c 205.324 9.887
 205.324 8.379 205.324 8.133 c 205.324 7.578 205.234 6.781 204.957 5.641
 c h
204.832 5.148 m 204.434 3.645 204.125 2.906 203.695 2.227 c 203.293 1.52
 202.742 0.875 202.125 0.875 c 201.387 0.875 201.266 1.922 201.266 2.66 
c 201.266 3.551 201.512 4.629 201.633 5.148 c h
204.832 5.148 m f
305.117 11.453 m 311.547 16.832 l 309.699 16.832 l 301.059 9.543 l 302.594
 16.832 l 300.934 16.832 l 298.012 3.207 l 299.672 3.207 l 300.629 7.668
 l 303.824 10.344 l 307.117 3.207 l 308.902 3.207 l h
305.117 11.453 m f
316.766 6.941 m 316.766 8.387 316.215 9.922 314.859 9.922 c 312.801 9.922
 310.617 6.234 310.617 3.094 c 310.617 1.465 311.262 0.145 312.523 0.145
 c 314.582 0.145 316.766 3.863 316.766 6.941 c h
312.152 5.277 m 312.859 8.23 314.059 9.523 314.859 9.523 c 315.723 9.523
 315.723 8.016 315.723 7.77 c 315.723 7.215 315.629 6.418 315.352 5.277 
c h
315.23 4.785 m 314.828 3.281 314.52 2.543 314.09 1.863 c 313.691 1.156 
313.137 0.512 312.523 0.512 c 311.785 0.512 311.66 1.559 311.66 2.297 c 
311.66 3.188 311.906 4.266 312.031 4.785 c h
315.23 4.785 m f
1 g
30.5 295 331.5 -274.5 re f
0.137255 g
0.50025 w
2 J
1 j
[] 0.0 d
10 M q 1 0 0 -1 0 301 cm
30.5 280.5 m 362 280.5 l S Q
q 1 0 0 -1 0 301 cm
30.5 6 m 362 6 l S Q
q 1 0 0 -1 0 301 cm
85.75 280.5 m 85.75 277.184 l S Q
q 1 0 0 -1 0 301 cm
196.25 280.5 m 196.25 277.184 l S Q
q 1 0 0 -1 0 301 cm
306.75 280.5 m 306.75 277.184 l S Q
q 1 0 0 -1 0 301 cm
85.75 6 m 85.75 9.316 l S Q
q 1 0 0 -1 0 301 cm
196.25 6 m 196.25 9.316 l S Q
q 1 0 0 -1 0 301 cm
306.75 6 m 306.75 9.316 l S Q
q 1 0 0 -1 0 301 cm
30.5 280.5 m 30.5 6 l S Q
q 1 0 0 -1 0 301 cm
362 280.5 m 362 6 l S Q
q 1 0 0 -1 0 301 cm
30.5 280.5 m 33.816 280.5 l S Q
q 1 0 0 -1 0 301 cm
30.5 225.602 m 33.816 225.602 l S Q
q 1 0 0 -1 0 301 cm
30.5 170.699 m 33.816 170.699 l S Q
q 1 0 0 -1 0 301 cm
30.5 115.801 m 33.816 115.801 l S Q
q 1 0 0 -1 0 301 cm
30.5 60.898 m 33.816 60.898 l S Q
q 1 0 0 -1 0 301 cm
30.5 6 m 33.816 6 l S Q
q 1 0 0 -1 0 301 cm
362 280.5 m 358.684 280.5 l S Q
q 1 0 0 -1 0 301 cm
362 225.602 m 358.684 225.602 l S Q
q 1 0 0 -1 0 301 cm
362 170.699 m 358.684 170.699 l S Q
q 1 0 0 -1 0 301 cm
362 115.801 m 358.684 115.801 l S Q
q 1 0 0 -1 0 301 cm
362 60.898 m 358.684 60.898 l S Q
q 1 0 0 -1 0 301 cm
362 6 m 358.684 6 l S Q
19.207 26.438 m 18.145 26.438 17.066 25.953 16.488 25.156 c 15.738 24.172
 15.348 22.578 15.348 20.469 c 15.348 16.641 16.77 14.5 19.207 14.5 c 21.598
 14.5 23.035 16.656 23.035 20.375 c 23.035 22.594 22.66 24.141 21.91 25.156
 c 21.316 25.969 20.27 26.438 19.207 26.438 c h
19.207 24.969 m 20.723 24.969 21.332 23.562 21.332 20.5 c 21.332 17.297
 20.738 15.906 19.176 15.906 c 17.676 15.906 17.051 17.359 17.051 20.453
 c 17.051 23.562 17.676 24.969 19.207 24.969 c h
19.207 24.969 m f
4.207 81.336 m 3.145 81.336 2.066 80.852 1.488 80.055 c 0.738 79.07 0.348
 77.477 0.348 75.367 c 0.348 71.539 1.77 69.398 4.207 69.398 c 6.598 69.398
 8.035 71.555 8.035 75.273 c 8.035 77.492 7.66 79.039 6.91 80.055 c 6.316
 80.867 5.27 81.336 4.207 81.336 c h
4.207 79.867 m 5.723 79.867 6.332 78.461 6.332 75.398 c 6.332 72.195 5.738
 70.805 4.176 70.805 c 2.676 70.805 2.051 72.258 2.051 75.352 c 2.051 78.461
 2.676 79.867 4.207 79.867 c h
4.207 79.867 m f
11.758 71.664 m 9.945 71.664 l 9.945 69.773 l 11.883 69.773 l 11.883 71.664
 l h
11.758 71.664 m f
21.238 71.383 m 15.41 71.383 l 15.551 72.211 16.02 72.711 17.41 73.539 
c 19.02 74.398 l 20.598 75.258 21.441 76.508 21.441 77.898 c 21.441 78.852
 21.035 79.805 20.363 80.43 c 19.691 81.023 18.77 81.336 17.691 81.336 c
 16.254 81.336 15.066 80.82 14.441 79.836 c 14.035 79.227 13.832 78.445 
13.801 77.18 c 15.488 77.18 l 15.535 78.055 15.598 78.445 15.785 78.82 c
 16.16 79.508 16.785 79.883 17.645 79.883 c 18.926 79.883 19.738 79.086 
19.738 77.867 c 19.738 76.977 19.238 76.289 18.238 75.711 c 16.754 74.883
 l 14.395 73.539 13.676 72.383 13.551 69.773 c 21.363 69.773 l 21.363 71.383
 l h
21.238 71.383 m f
4.207 136.238 m 3.145 136.238 2.066 135.754 1.488 134.957 c 0.738 133.973
 0.348 132.379 0.348 130.27 c 0.348 126.441 1.77 124.301 4.207 124.301 c
 6.598 124.301 8.035 126.457 8.035 130.176 c 8.035 132.395 7.66 133.941 
6.91 134.957 c 6.316 135.77 5.27 136.238 4.207 136.238 c h
4.207 134.77 m 5.723 134.77 6.332 133.363 6.332 130.301 c 6.332 127.098
 5.738 125.707 4.176 125.707 c 2.676 125.707 2.051 127.16 2.051 130.254 
c 2.051 133.363 2.676 134.77 4.207 134.77 c h
4.207 134.77 m f
11.758 126.566 m 9.945 126.566 l 9.945 124.676 l 11.883 124.676 l 11.883
 126.566 l h
11.758 126.566 m f
18.238 127.504 m 18.238 124.676 l 19.91 124.676 l 19.91 127.395 l 21.598
 127.395 l 21.598 128.879 l 19.91 128.879 l 19.91 136.238 l 18.66 136.238
 l 13.441 129.02 l 13.441 127.395 l 18.238 127.395 l h
18.379 128.879 m 15.066 128.879 l 18.473 133.645 l 18.238 133.738 l 18.238
 128.879 l h
18.379 128.879 m f
4.207 191.137 m 3.145 191.137 2.066 190.652 1.488 189.855 c 0.738 188.871
 0.348 187.277 0.348 185.168 c 0.348 181.34 1.77 179.199 4.207 179.199 c
 6.598 179.199 8.035 181.355 8.035 185.074 c 8.035 187.293 7.66 188.84 6.91
 189.855 c 6.316 190.668 5.27 191.137 4.207 191.137 c h
4.207 189.668 m 5.723 189.668 6.332 188.262 6.332 185.199 c 6.332 181.996
 5.738 180.605 4.176 180.605 c 2.676 180.605 2.051 182.059 2.051 185.152
 c 2.051 188.262 2.676 189.668 4.207 189.668 c h
4.207 189.668 m f
11.758 181.465 m 9.945 181.465 l 9.945 179.574 l 11.883 179.574 l 11.883
 181.465 l h
11.758 181.465 m f
21.238 188.074 m 20.973 189.934 19.629 191.137 17.895 191.137 c 16.645 
191.137 15.41 190.512 14.738 189.496 c 14.035 188.387 13.691 186.918 13.691
 184.855 c 13.691 182.934 14.004 181.652 14.676 180.652 c 15.285 179.73 
16.395 179.199 17.645 179.199 c 19.801 179.199 21.488 180.918 21.488 183.137
 c 21.488 185.262 19.91 186.855 17.879 186.855 c 16.754 186.855 15.77 186.387
 15.16 185.559 c 15.395 185.48 l 15.41 188.246 16.191 189.668 17.801 189.668
 c 18.785 189.668 19.332 189.152 19.582 187.965 c 21.254 187.965 l h
17.707 185.387 m 19.066 185.387 19.77 184.543 19.77 183.027 c 19.77 181.605
 18.957 180.684 17.66 180.684 c 16.348 180.684 15.488 181.652 15.488 183.105
 c 15.488 184.512 16.316 185.387 17.707 185.387 c h
17.707 185.387 m f
4.207 246.039 m 3.145 246.039 2.066 245.555 1.488 244.758 c 0.738 243.773
 0.348 242.18 0.348 240.07 c 0.348 236.242 1.77 234.102 4.207 234.102 c 
6.598 234.102 8.035 236.258 8.035 239.977 c 8.035 242.195 7.66 243.742 6.91
 244.758 c 6.316 245.57 5.27 246.039 4.207 246.039 c h
4.207 244.57 m 5.723 244.57 6.332 243.164 6.332 240.102 c 6.332 236.898
 5.738 235.508 4.176 235.508 c 2.676 235.508 2.051 236.961 2.051 240.055
 c 2.051 243.164 2.676 244.57 4.207 244.57 c h
4.207 244.57 m f
11.758 236.367 m 9.945 236.367 l 9.945 234.477 l 11.883 234.477 l 11.883
 236.367 l h
11.758 236.367 m f
19.504 240.477 m 20.66 241.195 21.082 241.836 21.082 242.914 c 21.082 244.695
 19.566 246.039 17.551 246.039 c 15.551 246.039 13.988 244.68 13.988 242.914
 c 13.988 241.852 14.395 241.195 15.426 240.555 c 14.379 240.039 13.598 
238.992 13.598 237.742 c 13.598 235.664 15.285 234.102 17.551 234.102 c 
19.785 234.102 21.488 235.664 21.488 237.727 c 21.488 238.992 20.707 240.039
 19.629 240.555 c h
17.551 244.57 m 18.738 244.57 19.363 243.977 19.363 242.883 c 19.363 241.82
 18.723 241.227 17.551 241.227 c 16.348 241.227 15.707 241.82 15.707 242.898
 c 15.707 243.977 16.348 244.57 17.551 244.57 c h
17.551 239.82 m 18.957 239.82 19.77 239.039 19.77 237.711 c 19.77 236.352
 18.973 235.586 17.52 235.586 c 16.129 235.586 15.301 236.383 15.301 237.711
 c 15.301 239.039 16.113 239.82 17.551 239.82 c h
17.551 239.82 m f
18.801 297.562 m 18.801 289.375 l 20.488 289.375 l 20.488 300.938 l 19.316
 300.938 l 18.785 299.094 18.613 298.953 16.285 298.672 c 16.285 297.453
 l 18.801 297.453 l h
18.801 297.562 m f
0 J
q 1 0 0 -1 0 301 cm
30.5 280.5 m 362 280.5 l S Q
2 J
q 1 0 0 -1 0 301 cm
30.5 280.5 m 362 280.5 l S Q
q 1 0 0 -1 0 301 cm
30.5 6 m 362 6 l S Q
q 1 0 0 -1 0 301 cm
85.75 280.5 m 85.75 277.184 l S Q
q 1 0 0 -1 0 301 cm
196.25 280.5 m 196.25 277.184 l S Q
q 1 0 0 -1 0 301 cm
306.75 280.5 m 306.75 277.184 l S Q
q 1 0 0 -1 0 301 cm
85.75 6 m 85.75 9.316 l S Q
q 1 0 0 -1 0 301 cm
196.25 6 m 196.25 9.316 l S Q
q 1 0 0 -1 0 301 cm
306.75 6 m 306.75 9.316 l S Q
q 1 0 0 -1 0 301 cm
30.5 280.5 m 30.5 6 l S Q
q 1 0 0 -1 0 301 cm
362 280.5 m 362 6 l S Q
q 1 0 0 -1 0 301 cm
30.5 280.5 m 33.816 280.5 l S Q
q 1 0 0 -1 0 301 cm
30.5 225.602 m 33.816 225.602 l S Q
q 1 0 0 -1 0 301 cm
30.5 170.699 m 33.816 170.699 l S Q
q 1 0 0 -1 0 301 cm
30.5 115.801 m 33.816 115.801 l S Q
q 1 0 0 -1 0 301 cm
30.5 60.898 m 33.816 60.898 l S Q
q 1 0 0 -1 0 301 cm
30.5 6 m 33.816 6 l S Q
q 1 0 0 -1 0 301 cm
362 280.5 m 358.684 280.5 l S Q
q 1 0 0 -1 0 301 cm
362 225.602 m 358.684 225.602 l S Q
q 1 0 0 -1 0 301 cm
362 170.699 m 358.684 170.699 l S Q
q 1 0 0 -1 0 301 cm
362 115.801 m 358.684 115.801 l S Q
q 1 0 0 -1 0 301 cm
362 60.898 m 358.684 60.898 l S Q
q 1 0 0 -1 0 301 cm
362 6 m 358.684 6 l S Q
19.207 26.438 m 18.145 26.438 17.066 25.953 16.488 25.156 c 15.738 24.172
 15.348 22.578 15.348 20.469 c 15.348 16.641 16.77 14.5 19.207 14.5 c 21.598
 14.5 23.035 16.656 23.035 20.375 c 23.035 22.594 22.66 24.141 21.91 25.156
 c 21.316 25.969 20.27 26.438 19.207 26.438 c h
19.207 24.969 m 20.723 24.969 21.332 23.562 21.332 20.5 c 21.332 17.297
 20.738 15.906 19.176 15.906 c 17.676 15.906 17.051 17.359 17.051 20.453
 c 17.051 23.562 17.676 24.969 19.207 24.969 c h
19.207 24.969 m f
4.207 81.336 m 3.145 81.336 2.066 80.852 1.488 80.055 c 0.738 79.07 0.348
 77.477 0.348 75.367 c 0.348 71.539 1.77 69.398 4.207 69.398 c 6.598 69.398
 8.035 71.555 8.035 75.273 c 8.035 77.492 7.66 79.039 6.91 80.055 c 6.316
 80.867 5.27 81.336 4.207 81.336 c h
4.207 79.867 m 5.723 79.867 6.332 78.461 6.332 75.398 c 6.332 72.195 5.738
 70.805 4.176 70.805 c 2.676 70.805 2.051 72.258 2.051 75.352 c 2.051 78.461
 2.676 79.867 4.207 79.867 c h
4.207 79.867 m f
11.758 71.664 m 9.945 71.664 l 9.945 69.773 l 11.883 69.773 l 11.883 71.664
 l h
11.758 71.664 m f
21.238 71.383 m 15.41 71.383 l 15.551 72.211 16.02 72.711 17.41 73.539 
c 19.02 74.398 l 20.598 75.258 21.441 76.508 21.441 77.898 c 21.441 78.852
 21.035 79.805 20.363 80.43 c 19.691 81.023 18.77 81.336 17.691 81.336 c
 16.254 81.336 15.066 80.82 14.441 79.836 c 14.035 79.227 13.832 78.445 
13.801 77.18 c 15.488 77.18 l 15.535 78.055 15.598 78.445 15.785 78.82 c
 16.16 79.508 16.785 79.883 17.645 79.883 c 18.926 79.883 19.738 79.086 
19.738 77.867 c 19.738 76.977 19.238 76.289 18.238 75.711 c 16.754 74.883
 l 14.395 73.539 13.676 72.383 13.551 69.773 c 21.363 69.773 l 21.363 71.383
 l h
21.238 71.383 m f
4.207 136.238 m 3.145 136.238 2.066 135.754 1.488 134.957 c 0.738 133.973
 0.348 132.379 0.348 130.27 c 0.348 126.441 1.77 124.301 4.207 124.301 c
 6.598 124.301 8.035 126.457 8.035 130.176 c 8.035 132.395 7.66 133.941 
6.91 134.957 c 6.316 135.77 5.27 136.238 4.207 136.238 c h
4.207 134.77 m 5.723 134.77 6.332 133.363 6.332 130.301 c 6.332 127.098
 5.738 125.707 4.176 125.707 c 2.676 125.707 2.051 127.16 2.051 130.254 
c 2.051 133.363 2.676 134.77 4.207 134.77 c h
4.207 134.77 m f
11.758 126.566 m 9.945 126.566 l 9.945 124.676 l 11.883 124.676 l 11.883
 126.566 l h
11.758 126.566 m f
18.238 127.504 m 18.238 124.676 l 19.91 124.676 l 19.91 127.395 l 21.598
 127.395 l 21.598 128.879 l 19.91 128.879 l 19.91 136.238 l 18.66 136.238
 l 13.441 129.02 l 13.441 127.395 l 18.238 127.395 l h
18.379 128.879 m 15.066 128.879 l 18.473 133.645 l 18.238 133.738 l 18.238
 128.879 l h
18.379 128.879 m f
4.207 191.137 m 3.145 191.137 2.066 190.652 1.488 189.855 c 0.738 188.871
 0.348 187.277 0.348 185.168 c 0.348 181.34 1.77 179.199 4.207 179.199 c
 6.598 179.199 8.035 181.355 8.035 185.074 c 8.035 187.293 7.66 188.84 6.91
 189.855 c 6.316 190.668 5.27 191.137 4.207 191.137 c h
4.207 189.668 m 5.723 189.668 6.332 188.262 6.332 185.199 c 6.332 181.996
 5.738 180.605 4.176 180.605 c 2.676 180.605 2.051 182.059 2.051 185.152
 c 2.051 188.262 2.676 189.668 4.207 189.668 c h
4.207 189.668 m f
11.758 181.465 m 9.945 181.465 l 9.945 179.574 l 11.883 179.574 l 11.883
 181.465 l h
11.758 181.465 m f
21.238 188.074 m 20.973 189.934 19.629 191.137 17.895 191.137 c 16.645 
191.137 15.41 190.512 14.738 189.496 c 14.035 188.387 13.691 186.918 13.691
 184.855 c 13.691 182.934 14.004 181.652 14.676 180.652 c 15.285 179.73 
16.395 179.199 17.645 179.199 c 19.801 179.199 21.488 180.918 21.488 183.137
 c 21.488 185.262 19.91 186.855 17.879 186.855 c 16.754 186.855 15.77 186.387
 15.16 185.559 c 15.395 185.48 l 15.41 188.246 16.191 189.668 17.801 189.668
 c 18.785 189.668 19.332 189.152 19.582 187.965 c 21.254 187.965 l h
17.707 185.387 m 19.066 185.387 19.77 184.543 19.77 183.027 c 19.77 181.605
 18.957 180.684 17.66 180.684 c 16.348 180.684 15.488 181.652 15.488 183.105
 c 15.488 184.512 16.316 185.387 17.707 185.387 c h
17.707 185.387 m f
4.207 246.039 m 3.145 246.039 2.066 245.555 1.488 244.758 c 0.738 243.773
 0.348 242.18 0.348 240.07 c 0.348 236.242 1.77 234.102 4.207 234.102 c 
6.598 234.102 8.035 236.258 8.035 239.977 c 8.035 242.195 7.66 243.742 6.91
 244.758 c 6.316 245.57 5.27 246.039 4.207 246.039 c h
4.207 244.57 m 5.723 244.57 6.332 243.164 6.332 240.102 c 6.332 236.898
 5.738 235.508 4.176 235.508 c 2.676 235.508 2.051 236.961 2.051 240.055
 c 2.051 243.164 2.676 244.57 4.207 244.57 c h
4.207 244.57 m f
11.758 236.367 m 9.945 236.367 l 9.945 234.477 l 11.883 234.477 l 11.883
 236.367 l h
11.758 236.367 m f
19.504 240.477 m 20.66 241.195 21.082 241.836 21.082 242.914 c 21.082 244.695
 19.566 246.039 17.551 246.039 c 15.551 246.039 13.988 244.68 13.988 242.914
 c 13.988 241.852 14.395 241.195 15.426 240.555 c 14.379 240.039 13.598 
238.992 13.598 237.742 c 13.598 235.664 15.285 234.102 17.551 234.102 c 
19.785 234.102 21.488 235.664 21.488 237.727 c 21.488 238.992 20.707 240.039
 19.629 240.555 c h
17.551 244.57 m 18.738 244.57 19.363 243.977 19.363 242.883 c 19.363 241.82
 18.723 241.227 17.551 241.227 c 16.348 241.227 15.707 241.82 15.707 242.898
 c 15.707 243.977 16.348 244.57 17.551 244.57 c h
17.551 239.82 m 18.957 239.82 19.77 239.039 19.77 237.711 c 19.77 236.352
 18.973 235.586 17.52 235.586 c 16.129 235.586 15.301 236.383 15.301 237.711
 c 15.301 239.039 16.113 239.82 17.551 239.82 c h
17.551 239.82 m f
18.801 297.562 m 18.801 289.375 l 20.488 289.375 l 20.488 300.938 l 19.316
 300.938 l 18.785 299.094 18.613 298.953 16.285 298.672 c 16.285 297.453
 l 18.801 297.453 l h
18.801 297.562 m f
0 J
q 1 0 0 -1 0 301 cm
30.5 280.5 m 362 280.5 l S Q
0 0 1 rg
57.336 120.5 25.258 -100 re f
167.836 20.828 25.258 -0.328 re f
278.336 191.129 25.258 -170.629 re f
0 g
2.00025 w
0 j
q 1 0 0 -1 0 301 cm
57.336 180.5 25.258 100 re S Q
q 1 0 0 -1 0 301 cm
167.836 280.172 25.258 0.328 re S Q
q 1 0 0 -1 0 301 cm
278.336 109.871 25.258 170.629 re S Q
1 0 0 rg
88.906 122.836 25.258 -102.336 re f
199.406 22.586 25.258 -2.086 re f
309.906 194.312 25.258 -173.812 re f
0 g
q 1 0 0 -1 0 301 cm
88.906 178.164 25.258 102.336 re S Q
q 1 0 0 -1 0 301 cm
199.406 278.414 25.258 2.086 re S Q
q 1 0 0 -1 0 301 cm
309.906 106.688 25.258 173.812 re S Q
Q Q
showpage
%%Trailer
end restore
%%EOF
